Predict Probability of Sales on Inbound Call Center Traffic
…
## 
## No Sale    Sale 
##    0.93    0.07

## Analysis of Variance Table
## 
## Response: SaleCode
##            Df Sum Sq  Mean Sq F value  Pr(>F)  
## Affiliate  31  2.593 0.083642  1.6339 0.01705 *
## AreaCode  249 15.236 0.061190  1.1953 0.03958 *
## Residuals 719 36.807 0.051192                  
## ---
## Signif. codes:  0 '***' 0.001 '**' 0.01 '*' 0.05 '.' 0.1 ' ' 1

## # A tibble: 330 x 2
##                                    CableCompany PercentOfTot
##                                           <chr>        <dbl>
## 1                                               2.596545e-03
## 2                                    10channels 2.482357e-06
## 3                          2turniton - outbound 7.322952e-04
## 4                                         5linx 3.847653e-04
## 5                                   732 numbers 2.482357e-06
## 6                    732 numbers charter retail 2.482357e-05
## 7                          732numbers earthlink 4.915066e-04
## 8  76766 -<U+FFFD>nuhome promotions - mso - twc 9.681191e-05
## 9         80191 - nuhome promotions - mso - cox 1.092237e-04
## 10                                      abenity 9.929427e-06
## # ... with 320 more rows

## [1] "Percent of Affiliate, Pr(Affiliate)"

## # A tibble: 89 x 2
##                   Affiliate PercentOfTot
##                       <chr>        <dbl>
## 1                10Channels 2.482357e-06
## 2             2TurnItOn.com 7.322952e-04
## 3                     5LINX 3.847653e-04
## 4           732-Numbers LLC 1.380190e-03
## 5                   ABENITY 9.929427e-06
## 6            AP Media Group 2.482357e-06
## 7              Acceller_DSI 6.429304e-04
## 8               Adknowledge 6.454127e-05
## 9  Advanced Home Protection 1.439767e-03
## 10          All Bundles LLC 2.482357e-06
## # ... with 79 more rows

## [1] "Percent of AreaCode, Pr(AreaCode)"

## # A tibble: 430 x 2
##    AreaCode PercentOfTot
##       <chr>        <dbl>
## 1       2.3 1.737650e-05
## 2       2.5 2.482357e-06
## 3       201 3.050816e-03
## 4       202 6.133903e-03
## 5       203 5.637432e-03
## 6       204 3.971771e-05
## 7       205 4.475689e-03
## 8       206 3.048334e-03
## 9       207 3.487711e-03
## 10      208 2.286250e-03
## # ... with 420 more rows

## [1] "Percent of Sale , Pr(C)"

## # A tibble: 2 x 2
##      Sale PercentOfTot
##     <chr>        <dbl>
## 1 No Sale   0.93362675
## 2    Sale   0.06637325

Probability of each factor level given conversation rate C

## [1] "Pr (CableCompany | C)"

## # A tibble: 165 x 2
##                                    CableCompany         Prob
##                                           <chr>        <dbl>
## 1                                               1.757798e-03
## 2                          2turniton - outbound 3.365996e-04
## 3                                         5linx 8.601990e-04
## 4                    732 numbers charter retail 3.739996e-05
## 5                          732numbers earthlink 1.121999e-04
## 6  76766 -<U+FFFD>nuhome promotions - mso - twc 2.617997e-04
## 7         80191 - nuhome promotions - mso - cox 2.617997e-04
## 8                      advanced home protection 3.777395e-03
## 9                                           att 2.255217e-02
## 10                                  att spanish 3.365996e-04
## # ... with 155 more rows

## [1] "Pr (Affiliate | C)"

## # A tibble: 45 x 2
##                                        Affiliate         Prob
##                                            <chr>        <dbl>
## 1                                  2TurnItOn.com 3.365996e-04
## 2                                          5LINX 8.601990e-04
## 3                                732-Numbers LLC 4.113995e-04
## 4                       Advanced Home Protection 3.777395e-03
## 5                          Broadband Corporation 3.739996e-05
## 6  CJ Communications dba Home Service Connection 4.226195e-03
## 7                                      CLEARLINK 1.563318e-01
## 8                                 CM Enterprises 5.609993e-04
## 9                           Cannon Satellite LLC 6.881592e-03
## 10                             Connect Your Home 1.126487e-01
## # ... with 35 more rows

## [1] "Pr(C | AreaCode)"

## [1] "Pr (AreaCode | C)"

## # A tibble: 308 x 2
##    AreaCode         Prob
##       <chr>        <dbl>
## 1       201 0.0026179969
## 2       202 0.0056099933
## 3       203 0.0047497943
## 4       205 0.0052359937
## 5       206 0.0024309971
## 6       207 0.0038521954
## 7       208 0.0046375944
## 8       209 0.0035155958
## 9       210 0.0054603934
## 10      212 0.0005609993
## # ... with 298 more rows

## # A tibble: 165 x 2
##                                    CableCompany         Prob
##                                           <chr>        <dbl>
## 1                                               1.757798e-03
## 2                          2turniton - outbound 3.365996e-04
## 3                                         5linx 8.601990e-04
## 4                    732 numbers charter retail 3.739996e-05
## 5                          732numbers earthlink 1.121999e-04
## 6  76766 -<U+FFFD>nuhome promotions - mso - twc 2.617997e-04
## 7         80191 - nuhome promotions - mso - cox 2.617997e-04
## 8                      advanced home protection 3.777395e-03
## 9                                           att 2.255217e-02
## 10                                  att spanish 3.365996e-04
## # ... with 155 more rows

## # A tibble: 165 x 9
##                                    CableCompany         Prob     n lower
##                                           <chr>        <dbl> <int> <dbl>
## 1                                               1.757798e-03    47     0
## 2                          2turniton - outbound 3.365996e-04     9     0
## 3                                         5linx 8.601990e-04    23     0
## 4                    732 numbers charter retail 3.739996e-05     1     0
## 5                          732numbers earthlink 1.121999e-04     3     0
## 6  76766 -<U+FFFD>nuhome promotions - mso - twc 2.617997e-04     7     0
## 7         80191 - nuhome promotions - mso - cox 2.617997e-04     7     0
## 8                      advanced home protection 3.777395e-03   101     0
## 9                                           att 2.255217e-02   603     0
## 10                                  att spanish 3.365996e-04     9     0
## # ... with 155 more rows, and 5 more variables: upper <dbl>, range <dbl>,
## #   YATES <dbl>, p.c1 <dbl>, p.c2 <dbl>

## # A tibble: 308 x 9
##    AreaCode         Prob     n lower      upper      range     YATES
##       <chr>        <dbl> <int> <dbl>      <dbl>      <dbl>     <dbl>
## 1       201 0.0026179969    70     0 0.05103206 0.05103206 0.4999626
## 2       202 0.0056099933   150     0 0.02409097 0.02409097 0.4999626
## 3       203 0.0047497943   127     0 0.02839614 0.02839614 0.4999626
## 4       205 0.0052359937   140     0 0.02579062 0.02579062 0.4999626
## 5       206 0.0024309971    65     0 0.05487416 0.05487416 0.4999626
## 6       207 0.0038521954   103     0 0.03491215 0.03491215 0.4999626
## 7       208 0.0046375944   124     0 0.02907416 0.02907416 0.4999626
## 8       209 0.0035155958    94     0 0.03820153 0.03820153 0.4999626
## 9       210 0.0054603934   146     0 0.02474314 0.02474314 0.4999626
## 10      212 0.0005609993    15     0 0.22361887 0.22361887 0.4999626
## # ... with 298 more rows, and 2 more variables: p.c1 <dbl>, p.c2 <dbl>
…
